Data manipulation and visualisation with tidyverse
…
  surveys_complete %>%
    count(sex)

#> # A tibble: 2 x 2
#>   sex       n
#>   <chr> <int>
#> 1 F     14584
#> 2 M     16092

As you can see count has grouped the categories present in the sex column and returned the frequency of each category. If we wanted to count combination of factors, such as sex and species, we would specify the first and the second factor as the arguments of count():

surveys_complete %>%
  count(sex, species) 

#> # A tibble: 41 x 3
#>    sex   species         n
#>    <chr> <chr>       <int>
#>  1 F     albigula      606
#>  2 F     baileyi      1617
#>  3 F     eremicus      539
#>  4 F     flavus        711
#>  5 F     fulvescens     55
#>  6 F     fulviventer    15
#>  7 F     hispidus       91
#>  8 F     leucogaster   436
#>  9 F     leucopus       16
#> 10 F     maniculatus   354
#> # ... with 31 more rows
…
Plotting time series data - geom_line()

Now that we know how to obtain frequencies, let us create a time series plot with ggplot. A time series plot displays values over time with the aim to show how data changes over time. Let us plot years on the x-axis and the frequencies of the yearly observations per genus on the y-axis.

First we need to get the frequencies of the yearly observations per genus:

yearly_counts <- surveys_complete %>%
  count(year, genus)

yearly_counts now contains the following results:

#> # A tibble: 199 x 3
#>     year genus               n
#>    <dbl> <chr>           <int>
#>  1  1977 Chaetodipus         3
#>  2  1977 Dipodomys         222
#>  3  1977 Onychomys           3
#>  4  1977 Perognathus        22
#>  5  1977 Peromyscus          2
#>  6  1977 Reithrodontomys     2
#>  7  1978 Chaetodipus        23
#>  8  1978 Dipodomys         629
#>  9  1978 Neotoma            23
#> 10  1978 Onychomys          80
#> # ... with 189 more rows
…
#> # A tibble: 2 x 2
#>   sex   mean_weight
#>   <chr>       <dbl>
#> 1 F            41.5
#> 2 M            42.1

You can also group by multiple columns:

surveys_complete %>%
  group_by(sex, species_id) %>%
  summarize(mean_weight = mean(weight))

#> # A tibble: 46 x 3
#> # Groups:   sex [2]
#>    sex   species_id mean_weight
#>    <chr> <chr>            <dbl>
#>  1 F     BA                9.16
#>  2 F     DM               41.6 
#>  3 F     DO               48.5 
#>  4 F     DS              117.  
#>  5 F     NL              154.  
#>  6 F     OL               30.8 
#>  7 F     OT               24.8 
#>  8 F     OX               22   
#>  9 F     PB               30.2 
#> 10 F     PE               22.8 
#> # ... with 36 more rows

Once the data are grouped, you can also summarize multiple variables at the same time (and not necessarily on the same variable). For instance, we could add a column indicating the minimum weight for each species for each sex:

surveys_complete %>%
  group_by(sex, species_id) %>%
  summarize(mean_weight = mean(weight),
            min_weight = min(weight))

#> # A tibble: 46 x 4
#> # Groups:   sex [2]
#>    sex   species_id mean_weight min_weight
#>    <chr> <chr>            <dbl>      <dbl>
#>  1 F     BA                9.16          6
#>  2 F     DM               41.6          10
#>  3 F     DO               48.5          12
#>  4 F     DS              117.           45
#>  5 F     NL              154.           32
#>  6 F     OL               30.8          10
#>  7 F     OT               24.8           5
#>  8 F     OX               22            22
#>  9 F     PB               30.2          12
#> 10 F     PE               22.8          11
#> # ... with 36 more rows
…
Use group_by() and summarise() to find the mean, min, and max hindfoot length for each species (using species_id). Also add the number of observations (hint: see ?n).

Answer

surveys_complete %>%
    group_by(species_id) %>%
    summarise(
        mean_hindfoot_length = mean(hindfoot_length),
        min_hindfoot_length = min(hindfoot_length),
        max_hindfoot_length = max(hindfoot_length),
        n = n()
    )

#> # A tibble: 24 x 5
#>    species_id mean_hindfoot_len~ min_hindfoot_leng~ max_hindfoot_len~     n
#>    <chr>                   <dbl>              <dbl>             <dbl> <int>
#>  1 BA                       13                    6                16    45
#>  2 DM                       36.0                 16                50  9727
#>  3 DO                       35.6                 26                64  2790
#>  4 DS                       50.0                 39                58  2023
#>  5 NL                       32.2                 21                42  1045
#>  6 OL                       20.5                 12                39   905
#>  7 OT                       20.3                 13                50  2081
#>  8 OX                       20.4                 19                21     5
#>  9 PB                       26.1                  2                47  2803
#> 10 PE                       20.2                 11                30  1198
#> # ... with 14 more rows

What was the heaviest animal measured in each year? Return the columns year, genus, species, and weight.

Answer

surveys_complete %>%
    group_by(year) %>%
    filter(weight == max(weight)) %>%
    select(year, genus, species_id, weight) %>%
    arrange(year)

#> # A tibble: 28 x 4
#> # Groups:   year [26]
#>     year genus     species_id weight
#>    <dbl> <chr>     <chr>       <dbl>
#>  1  1977 Dipodomys DS            149
#>  2  1978 Neotoma   NL            232
#>  3  1978 Neotoma   NL            232
#>  4  1979 Neotoma   NL            274
#>  5  1980 Neotoma   NL            241
#>  6  1980 Neotoma   NL            241
#>  7  1981 Neotoma   NL            251
#>  8  1982 Neotoma   NL            252
#>  9  1983 Neotoma   NL            256
#> 10  1984 Neotoma   NL            259
#> # ... with 18 more rows
…
The pattern of the graphs that before were hardly visible, e.g., Baiomys, is now clear as the axes have been rescaled to fit the data. This is the main advantage of using free scales. The disadvantage is that the different plots are not comparable as before.

If we would like to see if there is any difference between the sex, we can do this by adding sex as another grouping to count().

yearly_sex_counts <- surveys_complete %>%
                      count(year, genus, sex)

yearly_sex_counts will now look like:

#> # A tibble: 389 x 4
#>     year genus           sex       n
#>    <dbl> <chr>           <chr> <int>
#>  1  1977 Chaetodipus     F         3
#>  2  1977 Dipodomys       F       103
#>  3  1977 Dipodomys       M       119
#>  4  1977 Onychomys       F         2
#>  5  1977 Onychomys       M         1
#>  6  1977 Perognathus     F        14
#>  7  1977 Perognathus     M         8
#>  8  1977 Peromyscus      M         2
#>  9  1977 Reithrodontomys F         1
#> 10  1977 Reithrodontomys M         1
#> # ... with 379 more rows
…
